{
    "service": {
        "name": "mysql",
        "tags": ["mysql"],
        "port": 3306,
        "check": {
            "script": "mysql -h 127.0.0.1 -P 3306 -e 'select 1' >/dev/null 2>&1",
            "interval": "5s"
        }
    }
}